…
Let’s start with a for loop.

``` r
output = vector("list", length = 100)

for (i in 1:100) {
  
  output[[i]] = sim_mean_sd(samp_size = 30)
  
}

bind_rows(output)
```

    ## # A tibble: 100 x 2
    ##     mean    sd
    ##    <dbl> <dbl>
    ##  1  2.00  3.73
    ##  2  3.71  4.54
    ##  3  3.12  3.62
    ##  4  4.16  3.02
    ##  5  3.12  4.29
    ##  6  2.79  3.76
    ##  7  2.21  4.96
    ##  8  3.15  4.22
    ##  9  3.92  3.35
    ## 10  3.92  4.20
    ## # … with 90 more rows
…
